…
## hflights 패키지

- 2011년도 미국 휴스턴 출발 모든 비행기의 이착륙 정보

```r
install.packages("hflights")
library(hflights)

> flights_df <-tbl_df(hflights) # 현재 콘솔창의 크기만큼 데이터셋 추출
> flights_df
# A tibble: 227,496 x 21
    Year Month DayofMonth DayOfWeek DepTime ArrTime UniqueCarrier FlightNum
   <int> <int>      <int>     <int>   <int>   <int> <chr>             <int>
 1  2011     1          1         6    1400    1500 AA                  428
 2  2011     1          2         7    1401    1501 AA                  428
 3  2011     1          3         1    1352    1502 AA                  428
 4  2011     1          4         2    1403    1513 AA                  428
 5  2011     1          5         3    1405    1507 AA                  428
 6  2011     1          6         4    1359    1503 AA                  428
 7  2011     1          7         5    1359    1509 AA                  428
 8  2011     1          8         6    1355    1454 AA                  428
 9  2011     1          9         7    1443    1554 AA                  428
10  2011     1         10         1    1443    1553 AA                  428
# ... with 227,486 more rows, and 13 more variables: TailNum <chr>,
#   ActualElapsedTime <int>, AirTime <int>, ArrDelay <int>, DepDelay <int>,
#   Origin <chr>, Dest <chr>, Distance <int>, TaxiIn <int>, TaxiOut <int>,
#   Cancelled <int>, CancellationCode <chr>, Diverted <int>
```

##### hflights데이터셋으로부터 1월의 2일 모든 비행기의 이착률 정보 추출



```r
> #hflights데이터셋으로부터 1월의 2일 모든 비행기의 이착률 정보 추출
> f_1_2<-flights_df %>% filter(Month %in% c(1,2))
> print(f_1_2)
# A tibble: 36,038 x 21
    Year Month DayofMonth DayOfWeek DepTime ArrTime UniqueCarrier FlightNum
   <int> <int>      <int>     <int>   <int>   <int> <chr>             <int>
 1  2011     1          1         6    1400    1500 AA                  428
 2  2011     1          2         7    1401    1501 AA                  428
 3  2011     1          3         1    1352    1502 AA                  428
 4  2011     1          4         2    1403    1513 AA                  428
 5  2011     1          5         3    1405    1507 AA                  428
 6  2011     1          6         4    1359    1503 AA                  428
 7  2011     1          7         5    1359    1509 AA                  428
 8  2011     1          8         6    1355    1454 AA                  428
 9  2011     1          9         7    1443    1554 AA                  428
10  2011     1         10         1    1443    1553 AA                  428
# ... with 36,028 more rows, and 13 more variables: TailNum <chr>,
#   ActualElapsedTime <int>, AirTime <int>, ArrDelay <int>, DepDelay <int>,
#   Origin <chr>, Dest <chr>, Distance <int>, TaxiIn <int>, TaxiOut <int>,
#   Cancelled <int>, CancellationCode <chr>, Diverted <int>
```

##### hflights데이터셋을 년, 월, 출발시간, 도착시간순으로 오름차순 정렬

```r
> #hflights데이터셋을 년, 월, 출발시간, 도착시간순으로 오름차순 정렬
> f_asc<-flights_df %>% arrange(Year,Month,DepTime,ArrTime)
> print(f_asc)
# A tibble: 227,496 x 21
    Year Month DayofMonth DayOfWeek DepTime ArrTime UniqueCarrier FlightNum
   <int> <int>      <int>     <int>   <int>   <int> <chr>             <int>
 1  2011     1          1         6       1     621 CO                 1542
 2  2011     1         21         5       4      46 XE                 2956
 3  2011     1          4         2       5      59 OO                 1118
 4  2011     1         27         4      11     216 CO                  209
 5  2011     1         27         4      17     240 XE                 2771
 6  2011     1          9         7      22     117 WN                   55
 7  2011     1         28         5     226     310 XE                 2956
 8  2011     1         18         2     537     829 DL                 1248
 9  2011     1         25         2     538     824 DL                 1248
10  2011     1          7         5     538     832 DL                 1248
# ... with 227,486 more rows, and 13 more variables: TailNum <chr>,
#   ActualElapsedTime <int>, AirTime <int>, ArrDelay <int>, DepDelay <int>,
#   Origin <chr>, Dest <chr>, Distance <int>, TaxiIn <int>, TaxiOut <int>,
#   Cancelled <int>, CancellationCode <chr>, Diverted <int>
```



##### hflights데이터셋을 년(오름차순), 월(오름차순), 출발시간(내림차순), 도착시간(오름차순) 정렬

```r
> #hflights데이터셋을 년, 월, 출발시간, 도착시간순으로 오름차순 정렬
> f_asc<-flights_df %>% arrange(Year,Month,desc(DepTime),ArrTime)
> print(f_asc)
# A tibble: 227,496 x 21
    Year Month DayofMonth DayOfWeek DepTime ArrTime UniqueCarrier FlightNum
   <int> <int>      <int>     <int>   <int>   <int> <chr>             <int>
 1  2011     1          2         7    2335      32 WN                  117
 2  2011     1          2         7    2334     121 CO                  595
 3  2011     1         27         4    2329      14 WN                 3665
 4  2011     1          6         4    2325      10 XE                 2956
 5  2011     1         20         4    2325      17 XE                 2450
 6  2011     1          3         1    2321     110 CO                  595
 7  2011     1         17         1    2315       8 XE                 2450
 8  2011     1         14         5    2315      20 XE                 2450
 9  2011     1         27         4    2315    2355 XE                 2956
10  2011     1         27         4    2313       3 XE                 2450
# ... with 227,486 more rows, and 13 more variables: TailNum <chr>,
#   ActualElapsedTime <int>, AirTime <int>, ArrDelay <int>, DepDelay <int>,
#   Origin <chr>, Dest <chr>, Distance <int>, TaxiIn <int>, TaxiOut <int>,
#   Cancelled <int>, CancellationCode <chr>, Diverted <int>
```



##### hflights데이터셋으로부터 년, 월, 출발시간, 도착시간 컬럼만 검색

```r
> f_select<-flights_df %>% select(Year,Month,DepTime,ArrTime)
> print(f_select)
# A tibble: 227,496 x 4
    Year Month DepTime ArrTime
   <int> <int>   <int>   <int>
 1  2011     1    1400    1500
 2  2011     1    1401    1501
 3  2011     1    1352    1502
 4  2011     1    1403    1513
 5  2011     1    1405    1507
 6  2011     1    1359    1503
 7  2011     1    1359    1509
 8  2011     1    1355    1454
 9  2011     1    1443    1554
10  2011     1    1443    1553
# ... with 227,486 more rows
```



##### hflights데이터셋으로부터 출발지연시간과 도착지연시간과의 차리를 계산한 컬럼 추가

```r
f_def<-flights_df %>% mutate(def=(ArrDelay-DepDelay))
> f_def1<-f_def %>% select(Year,Month,def)
> print(f_def1)
# A tibble: 227,496 x 3
    Year Month   def
   <int> <int> <int>
 1  2011     1   -10
 2  2011     1   -10
 3  2011     1     0
 4  2011     1     0
 5  2011     1    -8
 6  2011     1    -6
 7  2011     1     0
 8  2011     1   -11
 9  2011     1     1
10  2011     1     0
# ... with 227,486 more rows
```
…
